1_vector_data
…
    name authority code area         extent                                proj
1 WGS 84      EPSG 4326 <NA> NA, NA, NA, NA +proj=longlat +datum=WGS84 +no_defs

points_sf_smpl_3857_toCountriesProj <- st_transform(points_sf_smpl_3857, crs = st_crs(countries_sf))

# just to show spatial join works, now that both datasets have the same CRS; 
# spatial join will be explained in later section
st_join(points_sf_smpl_3857_toCountriesProj, countries_sf) 

Simple feature collection with 100 features and 173 fields
Geometry type: POINT
Dimension:     XY
Bounding box:  xmin: 6.077769 ymin: 47.36741 xmax: 14.71132 ymax: 54.3288
Geodetic CRS:  WGS 84
# A tibble: 100 × 174
   location_x  location_y country continent    treecover2015
 * <chr>       <chr>      <chr>   <chr>                <dbl>
 1 12.706457   52.45636   Germany EuropeRussia             4
 2 13.132172   51.736271  Germany EuropeRussia           100
 3 13.524722   53.713386  Germany EuropeRussia           100
 4 6.43869     50.302882  Germany EuropeRussia           100
 5 12.244135   52.749447  Germany EuropeRussia             0
 6 10.549999   51.775522  Germany EuropeRussia            90
 7 10.079667   51.492923  Germany EuropeRussia           100
 8 8.905681    51.771829  Germany EuropeRussia           100
 9 10.309141   50.924717  Germany EuropeRussia           100
10 13.90337529 52.258621  Germany EuropeRussia             8
# ℹ 90 more rows
# ℹ 169 more variables: geometry <POINT [°]>, NAME_PL <chr>, NAME_JA <chr>,
#   NAME_RU <chr>, ADM0_A3_DE <chr>, NAME_IT <chr>, MIN_LABEL <dbl>,
#   NAME_HI <chr>, NAME_HE <chr>, NAME_FR <chr>, NAME_ES <chr>, NAME_DE <chr>,
#   NAME_KO <chr>, ADM0_A3_KO <chr>, ABBREV <chr>, NAME_AR <chr>,
#   WIKIDATAID <chr>, ISO_N3 <chr>, NE_ID <chr>, NAME_PT <chr>, LABEL_Y <dbl>,
#   NAME_FA <chr>, LABEL_X <dbl>, TINY <int>, ABBREV_LEN <int>, …
…
